<?xml version="1.0" encoding="utf-8"?>
<!-- Generator: Adobe Illustrator 16.0.0, SVG Export Plug-In . SVG Version: 6.00 Build 0)  -->
<!DOCTYPE svg PUBLIC "-//W3C//DTD SVG 1.1//EN" "http://www.w3.org/Graphics/SVG/1.1/DTD/svg11.dtd">
<svg version="1.1" id="Layer_1" xmlns="http://www.w3.org/2000/svg" xmlns:xlink="http://www.w3.org/1999/xlink" x="0px" y="0px"
	 width="350px" height="100px" viewBox="0 0 350 100" enable-background="new 0 0 350 100" xml:space="preserve">
<g>
	<path fill-rule="evenodd" clip-rule="evenodd" fill="#FFFFFF" d="M344.64,36.72c-0.055,0.214-0.138,0.426-0.162,0.645
		c-0.422,3.837-2.953,6.253-6.313,6.859c-1.588,0.287-3.188,0.265-4.79,0.263c-0.369,0-0.738,0-1.218,0c0,1.328,0,2.57,0,3.813
		c0,1.25,0,2.499,0,3.847c-1.959,0.041-3.867,0.018-5.756,0.017c-0.185-0.713-0.189-23.69-0.015-24.4
		c0.205-0.013,0.424-0.039,0.643-0.039c2.653-0.001,5.309-0.043,7.961,0.022c1.319,0.033,2.646,0.189,3.945,0.423
		c2.91,0.524,5.237,3.244,5.541,6.338c0.019,0.189,0.108,0.372,0.164,0.557C344.64,35.618,344.64,36.169,344.64,36.72z
		 M332.202,38.98c1.396,0,2.694,0.02,3.993-0.014c0.337-0.008,0.68-0.159,1.003-0.288c1.956-0.786,1.925-3.959,0.547-4.791
		c-0.441-0.267-0.938-0.56-1.431-0.6c-1.317-0.108-2.645-0.087-3.968-0.113c-0.039-0.001-0.078,0.055-0.145,0.104
		C332.202,35.151,332.202,37.042,332.202,38.98z"/>
	<path fill-rule="evenodd" clip-rule="evenodd" fill="#FFFFFF" d="M51.579,5.46c0.25,0.103,0.495,0.214,0.748,0.306
		c1.816,0.657,2.858,2.518,2.439,4.362c-0.436,1.919-2.12,3.142-4.093,2.969c-1.851-0.162-3.345-1.781-3.397-3.681
		c-0.043-1.597,0.974-3.069,2.51-3.641c0.251-0.094,0.494-0.209,0.74-0.314C50.878,5.46,51.229,5.46,51.579,5.46z"/>
	<path fill-rule="evenodd" clip-rule="evenodd" fill="#FFFFFF" d="M68.862,94.881c-0.241-0.116-0.479-0.236-0.723-0.348
		c-1.633-0.742-2.518-2.515-2.128-4.266c0.39-1.753,1.968-3.015,3.73-2.985c1.81,0.031,3.326,1.324,3.686,3.142
		c0.327,1.651-0.602,3.398-2.184,4.114c-0.244,0.11-0.485,0.229-0.728,0.343C69.965,94.881,69.413,94.881,68.862,94.881z"/>
	<path fill-rule="evenodd" clip-rule="evenodd" fill="#FFFFFF" d="M31.741,94.881c-0.25-0.103-0.501-0.208-0.752-0.312
		c-1.8-0.733-2.744-2.68-2.21-4.556c0.502-1.763,2.331-2.976,4.082-2.708c2.012,0.307,3.408,1.932,3.344,3.89
		c-0.049,1.507-1.006,2.844-2.43,3.399c-0.229,0.09-0.454,0.19-0.681,0.286C32.643,94.881,32.192,94.881,31.741,94.881z"/>
	<path fill-rule="evenodd" clip-rule="evenodd" fill="#FFFFFF" d="M344.64,69.332c-1.069,0-2.138,0-3.25,0
		c-0.019-0.262-0.032-0.45-0.053-0.751c0.579-0.007,1.118-0.021,1.655-0.021c0.549,0,1.099,0.014,1.647,0.02
		C344.64,68.831,344.64,69.082,344.64,69.332z"/>
	<path fill-rule="evenodd" clip-rule="evenodd" fill="#FFFFFF" d="M235.325,43.208c-2.476,0-4.838,0-7.244,0c0-1.67,0-3.237,0-4.804
		c0.533-0.147,13.355-0.193,14.345-0.048c0.222,0.434,0.116,0.916,0.111,1.377c-0.028,2.425-0.59,4.708-1.863,6.793
		c-1.951,3.195-4.79,5.142-8.438,5.853c-4.018,0.783-7.758,0.063-10.963-2.553c-3.548-2.898-5.078-6.71-4.711-11.288
		c0.368-4.592,3.573-9.44,9.658-10.86c5.462-1.275,10.083,0.315,13.723,4.615c0.717,0.846,1.243,1.816,1.613,2.865
		c0.065,0.185,0.106,0.378,0.175,0.623c-0.24,0.024-0.431,0.06-0.621,0.06c-1.877,0.004-3.756-0.003-5.633,0.007
		c-0.398,0.002-0.682-0.082-0.94-0.447c-1.591-2.259-3.781-3.146-6.478-2.574c-2.729,0.578-4.479,2.301-5.141,4.991
		c-0.476,1.934-0.354,3.878,0.543,5.716c1.406,2.885,4.371,3.986,6.966,3.671c1.437-0.174,2.718-0.671,3.721-1.754
		C234.696,44.857,235.119,44.19,235.325,43.208z"/>
	<path fill-rule="evenodd" clip-rule="evenodd" fill="#FFFFFF" d="M295.94,39.927c0.006,7.147-5.644,12.666-12.925,12.71
		c-7.054,0.044-12.813-5.519-12.879-12.442c-0.072-7.698,6.181-12.986,12.844-12.959C290.166,27.266,295.975,32.827,295.94,39.927z
		 M276.346,39.281c0.003,2.661,0.685,4.461,1.941,5.839c2.678,2.94,7.868,2.987,10.25-0.95c1.766-2.921,1.668-5.865-0.186-8.706
		c-2.114-3.239-6.101-3.382-8.509-1.974C277.404,34.916,276.436,37.173,276.346,39.281z"/>
	<path fill-rule="evenodd" clip-rule="evenodd" fill="#FFFFFF" d="M247.76,52.13c0-8.129,0-16.205,0-24.34
		c0.189-0.022,0.378-0.063,0.568-0.063c2.829,0,5.657-0.016,8.485,0.024c0.946,0.013,1.901,0.111,2.834,0.277
		c2.731,0.486,4.615,2.056,5.645,4.628c0.788,1.971,0.905,3.994,0.287,6.028c-0.776,2.556-2.402,4.284-5.029,4.988
		c-0.167,0.045-0.333,0.098-0.499,0.15c-0.019,0.006-0.03,0.035-0.114,0.14c2.128,2.67,4.272,5.361,6.486,8.139
		c-0.283,0.03-0.464,0.065-0.646,0.065c-1.902,0.005-3.806-0.017-5.706,0.017c-0.495,0.009-0.772-0.175-1.042-0.557
		c-1.559-2.208-3.137-4.402-4.71-6.601c-0.154-0.215-0.32-0.421-0.633-0.599c-0.015,0.258-0.041,0.517-0.042,0.775
		c-0.003,2.028,0,4.055-0.003,6.083c-0.001,0.27-0.026,0.539-0.043,0.845C251.643,52.13,249.749,52.13,247.76,52.13z M253.682,40.05
		c1.187-0.021,2.308,0.105,3.42-0.097c2.253-0.41,3.393-2.223,2.827-4.446c-0.182-0.715-0.546-1.318-1.196-1.652
		c-0.547-0.281-1.147-0.504-1.749-0.62c-1.079-0.207-2.176-0.139-3.302-0.068C253.682,35.47,253.682,37.692,253.682,40.05z"/>
	<path fill-rule="evenodd" clip-rule="evenodd" fill="#FFFFFF" d="M301.252,27.756c2.057,0,4.027,0,6.078,0
		c0.012,0.317,0.034,0.607,0.034,0.898c0.002,4.559-0.011,9.117,0.015,13.676c0.005,0.87,0.062,1.764,0.273,2.602
		c0.514,2.038,2.673,2.951,4.53,1.963c1.034-0.549,1.407-1.526,1.509-2.616c0.064-0.697,0.059-1.401,0.06-2.102
		c0.004-4.483,0.001-8.967,0.004-13.45c0-0.318,0.028-0.636,0.045-0.963c2.069,0,4.063,0,6.104,0
		c0.019,0.254,0.046,0.472,0.046,0.69c0.002,4.81,0.02,9.619-0.016,14.427c-0.008,1.07-0.101,2.161-0.331,3.204
		c-0.694,3.143-2.715,5.149-5.728,6.088c-2.648,0.825-5.324,0.661-7.851-0.491c-2.676-1.22-4.226-3.374-4.648-6.294
		c-0.113-0.79-0.151-1.596-0.154-2.396c-0.014-4.834-0.008-9.667-0.007-14.502C301.216,28.269,301.236,28.048,301.252,27.756z"/>
	<path fill-rule="evenodd" clip-rule="evenodd" fill="#FFFFFF" d="M66.667,66.737c0.157-0.245,0.313-0.489,0.471-0.731
		c1.489-2.286,2.27-4.779,2.191-7.522c-0.046-1.622-0.392-3.183-1.089-4.646c-1.351-2.834-3.389-5.061-6.085-6.67
		c-1.511-0.903-3.164-1.347-4.918-1.464c-2.359-0.156-4.702,0.022-7.046,0.263c-1.322,0.136-2.654,0.238-3.96-0.093
		c-0.575-0.146-1.155-0.356-1.668-0.651c-1.406-0.806-1.991-2.291-1.605-3.863c0.208-0.847,0.624-1.584,1.207-2.222
		c0.9-0.982,1.987-1.677,3.287-2.004c4.092-1.028,8.208-1.275,12.336-0.244c4.203,1.05,7.725,3.194,10.218,6.79
		c3.165,4.564,3.648,9.541,1.956,14.76c-1.005,3.102-2.768,5.763-4.96,8.151c-0.075,0.081-0.172,0.143-0.259,0.213
		C66.717,66.781,66.692,66.759,66.667,66.737z"/>
	<path fill-rule="evenodd" clip-rule="evenodd" fill="#FFFFFF" d="M112.496,44.148c2.09,0,4.061,0,6.102,0
		c0.047,0.336,0.085,0.653,0.137,0.968c0.263,1.587,1.453,2.511,2.968,2.309c0.876-0.117,1.637-0.813,1.883-1.725
		c0.262-0.97,0.001-1.852-0.795-2.394c-0.513-0.35-1.077-0.638-1.644-0.896c-1.298-0.591-2.625-1.12-3.917-1.722
		c-1.363-0.634-2.533-1.533-3.345-2.819c-1.385-2.195-1.399-4.467-0.123-6.684c1.228-2.131,3.24-3.22,5.58-3.723
		c2.037-0.438,4.046-0.258,5.959,0.578c2.687,1.174,4.091,3.266,4.264,6.189c0.006,0.1,0.001,0.2-0.008,0.299
		c-0.005,0.046-0.035,0.089-0.075,0.184c-1.947,0-3.915,0-5.955,0c-0.072-0.257-0.143-0.541-0.229-0.82
		c-0.26-0.843-0.796-1.375-1.699-1.476c-0.944-0.106-1.746,0.168-2.298,0.962c-0.538,0.773-0.366,1.919,0.385,2.504
		c0.431,0.336,0.913,0.62,1.404,0.861c1.055,0.519,2.13,0.998,3.2,1.486c1.12,0.511,2.192,1.095,3.162,1.862
		c1.909,1.508,2.563,3.505,2.324,5.859c-0.033,0.323-0.079,0.647-0.148,0.964c-0.656,2.998-2.782,4.962-6.013,5.517
		c-1.744,0.3-3.497,0.289-5.223-0.123c-1.884-0.451-3.483-1.381-4.609-3.009C112.726,47.77,112.485,46.039,112.496,44.148z"/>
	<path fill-rule="evenodd" clip-rule="evenodd" fill="#FFFFFF" d="M185.975,27.79c0,1.73,0,3.469,0,5.312c-2.51,0-4.997,0-7.533,0
		c0,1.34,0,2.577,0,3.914c2.417,0.045,4.812-0.004,7.309,0.029c0.045,1.769,0.015,3.507,0.017,5.344
		c-0.815,0.073-1.609,0.028-2.397,0.035c-0.825,0.008-1.652,0.001-2.479,0.001c-0.795,0-1.59,0-2.455,0
		c-0.089,1.448-0.04,2.812-0.033,4.254c0.33,0.024,0.62,0.062,0.908,0.063c1.903,0.005,3.806,0.003,5.709,0.003
		c0.296,0,0.591,0,0.862,0c0.176,0.626,0.205,4.5,0.063,5.294c-0.564,0.154-12.65,0.176-13.432,0.015c0-8.064,0-16.139,0-24.209
		C173.055,27.689,184.919,27.639,185.975,27.79z"/>
	<path fill-rule="evenodd" clip-rule="evenodd" fill="#FFFFFF" d="M153.251,27.761c4.432,0,8.875,0,13.365,0
		c0,1.768,0,3.505,0,5.346c-2.513,0-5,0-7.537,0c0,1.338,0,2.573,0,3.915c2.424,0.026,4.815-0.001,7.188,0.016
		c0.177,0.58,0.225,4.215,0.073,5.36c-2.391,0.075-4.803-0.019-7.261,0.051c0,1.443,0,2.807,0,4.278
		c1.264,0.006,2.508,0.014,3.751,0.017c1.245,0.003,2.491,0,3.785,0c0,1.838,0,3.575,0,5.364c-4.468,0-8.909,0-13.343,0
		C153.098,51.498,153.074,28.547,153.251,27.761z"/>
	<path fill-rule="evenodd" clip-rule="evenodd" fill="#FFFFFF" d="M34.409,38.39c-0.144,0.247-0.288,0.494-0.43,0.742
		c-1.99,3.478-2.426,7.124-0.744,10.793c1.842,4.021,4.988,6.499,9.458,7.114c2.614,0.36,5.243,0.255,7.871,0.227
		c1.346-0.015,2.701,0.043,4.039,0.188c2.259,0.245,3.014,2.179,2.622,3.868c-0.519,2.23-1.886,3.896-4.097,4.503
		c-5.607,1.536-11.025,1.003-16.059-2.045c-3.629-2.199-6.152-5.312-7.308-9.443c-0.916-3.276-0.619-6.491,0.585-9.643
		c0.867-2.27,2.158-4.284,3.716-6.136c0.073-0.087,0.17-0.154,0.255-0.231C34.349,38.348,34.379,38.369,34.409,38.39z"/>
	<path fill-rule="evenodd" clip-rule="evenodd" fill="#FFFFFF" d="M143.851,52.127c-2.091,0-4.06,0-6.141,0
		c-0.016-1.595-0.005-3.162-0.007-4.729c-0.002-1.578,0-3.156,0-4.734c0-1.578,0-3.156,0-4.734c0-1.57,0-3.141,0-4.801
		c-1.634,0-3.174,0-4.811,0c-0.056-1.825-0.016-3.563-0.026-5.281c0.621-0.161,14.258-0.221,15.662-0.087
		c0.163,0.521,0.217,3.874,0.075,5.318c-1.521,0.074-3.064-0.014-4.691,0.051c-0.021,0.343-0.057,0.655-0.057,0.968
		c-0.003,5.686-0.002,11.372-0.002,17.057C143.851,51.451,143.851,51.749,143.851,52.127z"/>
	<path fill-rule="evenodd" clip-rule="evenodd" fill="#FFFFFF" d="M192.083,27.759c1.981,0,3.972,0,6.071,0
		c0.035,1.602,0.012,3.171,0.016,4.738c0.004,1.578,0.001,3.156,0.001,4.734c0,1.553,0,3.105,0,4.659c0,1.573,0,3.147,0,4.827
		c1.26,0.052,2.451,0.02,3.642,0.025c1.172,0.006,2.344,0.001,3.568,0.001c0,1.832,0,3.57,0,5.361c-4.441,0-8.859,0-13.274,0
		C191.956,51.531,191.931,28.59,192.083,27.759z"/>
	<path fill-rule="evenodd" clip-rule="evenodd" fill="#FFFFFF" d="M75.432,46.604c0.21-0.277,0.368-0.497,0.537-0.708
		c1.188-1.479,2.409-2.932,3.556-4.44c1.224-1.61,2.374-3.276,3.563-4.911c0.488-0.672,0.737-1.407,0.706-2.244
		c-0.017-0.441,0.024-0.884,0.125-1.343c2.052,3.298,3.457,6.842,4.32,10.606c0.866,3.774,1.193,7.59,0.859,11.556
		c-0.37-0.247-0.526-0.565-0.644-0.865c-0.465-1.199-1.361-1.897-2.491-2.448c-2.969-1.443-5.901-2.962-8.852-4.442
		C76.601,47.107,76.07,46.892,75.432,46.604z"/>
	<path fill-rule="evenodd" clip-rule="evenodd" fill="#FFFFFF" d="M18.125,33.215c0.022,0.469,0.037,0.938,0.069,1.406
		c0.053,0.761,0.249,1.464,0.729,2.091c1.887,2.464,3.75,4.948,5.632,7.416c0.667,0.874,1.363,1.725,2.108,2.664
		c-0.284,0.146-0.515,0.272-0.753,0.384c-2.174,1.02-4.362,2.01-6.519,3.065c-1.392,0.682-2.729,1.471-4.104,2.189
		c-0.652,0.341-1.114,0.827-1.417,1.492c-0.205,0.449-0.448,0.881-0.748,1.294C12.473,47.368,14.089,40.031,18.125,33.215z"/>
	<path fill-rule="evenodd" clip-rule="evenodd" fill="#FFFFFF" d="M72.953,83.455c-0.05-0.076-0.078-0.105-0.073-0.113
		c0.82-1.334,0.595-2.762,0.3-4.157c-0.718-3.401-1.5-6.789-2.255-10.182c-0.052-0.235-0.09-0.472-0.152-0.8
		c0.391,0,0.684-0.013,0.976,0.002c2.375,0.123,4.749,0.185,7.125,0c0.896-0.069,1.801-0.021,2.702-0.032
		c0.425-0.005,0.851-0.018,1.275-0.037c1.001-0.048,1.922-0.301,2.675-1.017c0.224-0.211,0.494-0.374,0.795-0.501
		C83.512,73.551,79.033,79.129,72.953,83.455z"/>
	<path fill-rule="evenodd" clip-rule="evenodd" fill="#FFFFFF" d="M44.84,14.72c-0.216,0.192-0.413,0.415-0.652,0.57
		c-0.551,0.358-0.923,0.832-1.084,1.471c-0.684,2.714-1.39,5.422-2.047,8.143c-0.311,1.287-0.526,2.596-0.792,3.894
		c-0.034,0.165-0.111,0.32-0.188,0.537c-0.308-0.143-0.579-0.261-0.843-0.393c-1.767-0.885-3.517-1.803-5.301-2.653
		c-1.668-0.795-3.376-1.507-5.056-2.279c-0.742-0.34-1.482-0.39-2.26-0.179c-0.359,0.098-0.728,0.158-1.113,0.24
		c0.579-1.13,5.454-4.523,8.879-6.199C37.688,16.255,42.19,14.839,44.84,14.72z"/>
	<path fill-rule="evenodd" clip-rule="evenodd" fill="#FFFFFF" d="M29.286,83.455c-5.231-3.185-11.703-11.262-13.453-16.757
		c0.39,0.112,0.636,0.352,0.87,0.567c0.654,0.605,1.378,0.924,2.297,0.915c1.374-0.009,2.749,0.087,4.123,0.14
		c0.775,0.029,1.55,0.076,2.325,0.093c0.6,0.014,1.201-0.002,1.802-0.014c1.275-0.021,2.552-0.052,3.827-0.073
		c0.093-0.001,0.187,0.039,0.335,0.073c-0.171,0.751-0.34,1.476-0.502,2.2c-0.557,2.49-1.121,4.979-1.662,7.473
		c-0.175,0.806-0.258,1.631-0.435,2.437c-0.185,0.847-0.102,1.638,0.282,2.408C29.159,83.045,29.193,83.187,29.286,83.455z"/>
	<path fill-rule="evenodd" clip-rule="evenodd" fill="#FFFFFF" d="M76.589,23.929c-0.556-0.109-0.974-0.173-1.381-0.275
		c-0.736-0.184-1.433-0.095-2.118,0.221c-2.043,0.943-4.101,1.854-6.131,2.823c-1.533,0.731-3.034,1.532-4.55,2.3
		c-0.13,0.066-0.269,0.117-0.478,0.206c-0.188-0.808-0.363-1.575-0.546-2.34c-0.751-3.134-1.512-6.267-2.253-9.404
		c-0.247-1.043-0.762-1.892-1.644-2.511c-0.119-0.084-0.223-0.189-0.358-0.304c1.478-0.169,7.038,1.507,10.389,3.113
		C70.819,19.337,75.067,22.206,76.589,23.929z"/>
	<path fill-rule="evenodd" clip-rule="evenodd" fill="#FFFFFF" d="M51.141,77.818c0.298,0.415,0.528,0.77,0.791,1.099
		c2.255,2.813,4.515,5.621,6.773,8.433c0.597,0.74,1.287,1.333,2.283,1.447c0.063,0.006,0.121,0.074,0.268,0.172
		c-6.77,1.817-13.448,1.828-20.167,0.055c0.049-0.076,0.058-0.108,0.071-0.11c1.389-0.22,2.163-1.252,2.961-2.247
		c1.973-2.463,3.946-4.925,5.914-7.39C50.393,78.829,50.729,78.364,51.141,77.818z"/>
	<path fill-rule="evenodd" clip-rule="evenodd" fill="#FFFFFF" d="M17.569,29.19c-2.093,0.011-3.793-1.651-3.817-3.729
		c-0.024-2.102,1.705-3.85,3.799-3.842c2.069,0.009,3.773,1.716,3.779,3.787C21.335,27.486,19.653,29.178,17.569,29.19z"/>
	<path fill-rule="evenodd" clip-rule="evenodd" fill="#FFFFFF" d="M92.931,65.701c-2.075-0.022-3.756-1.74-3.736-3.816
		c0.021-2.066,1.755-3.78,3.807-3.762c2.104,0.02,3.811,1.771,3.772,3.871C96.736,64.07,95.021,65.724,92.931,65.701z"/>
	<path fill-rule="evenodd" clip-rule="evenodd" fill="#FFFFFF" d="M9.148,65.709c-2.077-0.005-3.816-1.695-3.781-3.771
		c0.036-2.107,1.563-3.779,3.766-3.789c2.559-0.011,3.838,2.098,3.811,3.811C12.91,64.045,11.245,65.712,9.148,65.709z"/>
	<path fill-rule="evenodd" clip-rule="evenodd" fill="#FFFFFF" d="M80.75,25.332c-0.004-2.104,1.648-3.774,3.742-3.783
		c2.129-0.01,3.846,1.693,3.824,3.793c-0.021,2.087-1.708,3.754-3.796,3.75C82.419,29.088,80.753,27.427,80.75,25.332z"/>
	<path fill-rule="evenodd" clip-rule="evenodd" fill="#FFFFFF" d="M112.512,69.288c0.012-0.261,0.02-0.448,0.031-0.681
		c14.229,0,28.412,0,42.648,0c0,0.228,0,0.433,0,0.681C140.983,69.288,126.798,69.288,112.512,69.288z"/>
	<path fill-rule="evenodd" clip-rule="evenodd" fill="#FFFFFF" d="M298.969,64.856c0.329,0,0.548,0,0.841,0
		c0.664,2.288,1.327,4.585,1.992,6.881c0.43-1.098,0.572-2.235,0.788-3.358c0.222-1.151,0.437-2.302,0.663-3.501
		c0.364,0,0.701,0,1.132,0c0.461,2.253,0.927,4.53,1.393,6.809c0.062,0.001,0.123,0.004,0.185,0.005
		c0.62-2.271,1.241-4.543,1.866-6.831c0.288,0,0.528,0,0.861,0c-0.796,2.759-1.575,5.461-2.359,8.18c-0.368,0-0.687,0-1.072,0
		c-0.448-2.255-0.893-4.497-1.338-6.741c-0.047,0.004-0.096,0.007-0.143,0.01c-0.419,2.228-0.836,4.458-1.26,6.72
		c-0.383,0-0.725,0-1.159,0C300.576,70.354,299.787,67.651,298.969,64.856z"/>
	<path fill-rule="evenodd" clip-rule="evenodd" fill="#FFFFFF" d="M60.979,85.022c-0.284,0.163-0.457-0.006-0.624-0.208
		c-2.255-2.737-4.511-5.473-6.762-8.212c-0.14-0.169-0.243-0.369-0.439-0.671c0.667-0.089,1.242-0.157,1.814-0.248
		c0.587-0.093,1.17-0.209,1.73-0.311C57.558,76.782,60.954,84.446,60.979,85.022z"/>
	<path fill-rule="evenodd" clip-rule="evenodd" fill="#FFFFFF" d="M45.447,75.389c1.243,0.205,2.391,0.394,3.628,0.598
		c-0.385,0.754-0.992,1.281-1.481,1.892c-0.484,0.605-1,1.186-1.499,1.78c-0.515,0.612-1.029,1.227-1.539,1.844
		c-0.494,0.598-0.987,1.197-1.47,1.803c-0.498,0.625-0.984,1.262-1.506,1.93c-0.145-0.05-0.298-0.103-0.452-0.155
		c0-0.105-0.023-0.187,0.003-0.245c0.428-0.93,0.869-1.854,1.293-2.783c0.903-1.98,1.798-3.963,2.696-5.942
		C45.223,75.884,45.325,75.659,45.447,75.389z"/>
	<path fill-rule="evenodd" clip-rule="evenodd" fill="#FFFFFF" d="M217.793,66.789c0,2.068,0,4.138,0,6.242
		c-0.304,0-0.541,0-0.827,0c0-2.72,0-5.412,0-8.154c0.306,0,0.594,0,0.962,0c1.131,1.966,2.287,3.975,3.443,5.984
		c0.055-0.008,0.109-0.018,0.163-0.026c0.007-0.654,0.017-1.31,0.02-1.964c0.004-0.651,0.001-1.303,0.001-1.953
		c0-0.67,0-1.341,0-2.05c0.316,0,0.556,0,0.842,0c0,2.713,0,5.406,0,8.148c-0.121,0.017-0.236,0.043-0.353,0.052
		c-0.124,0.01-0.249,0.001-0.448,0.001c-1.194-2.107-2.396-4.228-3.598-6.349C217.93,66.744,217.86,66.766,217.793,66.789z"/>
	<path fill-rule="evenodd" clip-rule="evenodd" fill="#FFFFFF" d="M179.671,73.031c-1.22-2.111-2.371-4.225-3.585-6.303
		c-0.056,0.017-0.113,0.034-0.169,0.052c0,2.062,0,4.122,0,6.244c-0.312,0.018-0.549,0.032-0.774,0.047
		c-0.168-0.576-0.2-7.381-0.045-8.21c0.286,0,0.579,0,0.916,0c1.147,1.992,2.301,3.996,3.453,6c0.054-0.016,0.105-0.031,0.158-0.048
		c0-1.958,0-3.917,0-5.932c0.309-0.024,0.547-0.042,0.775-0.061c0.161,0.567,0.199,7.275,0.052,8.21
		C180.218,73.031,179.977,73.031,179.671,73.031z"/>
	<path fill-rule="evenodd" clip-rule="evenodd" fill="#FFFFFF" d="M184.319,73.038c-0.363,0-0.584,0-0.851,0
		c0-2.724,0-5.414,0-8.102c0.88-0.212,0.882-0.214,1.305,0.525c0.911,1.582,1.819,3.166,2.73,4.75
		c0.123,0.212,0.256,0.421,0.456,0.623c0.13-0.982,0.086-1.962,0.095-2.938c0.008-0.996,0.001-1.991,0.001-3.028
		c0.317,0,0.555,0,0.843,0c0,2.705,0,5.397,0,8.146c-0.135,0.018-0.272,0.047-0.412,0.053c-0.123,0.004-0.247-0.018-0.402-0.032
		c-1.189-2.102-2.381-4.206-3.571-6.309c-0.06,0.011-0.117,0.022-0.176,0.033c-0.006,0.682-0.014,1.364-0.017,2.046
		c-0.003,0.701-0.001,1.401-0.001,2.103C184.319,71.604,184.319,72.297,184.319,73.038z"/>
	<path fill-rule="evenodd" clip-rule="evenodd" fill="#FFFFFF" d="M36.811,71.311c-1.528,3.105-2.922,6.271-4.646,9.345
		c-0.417-0.357-0.33-0.716-0.266-1.038c0.191-0.956,0.424-1.903,0.617-2.859c0.459-2.277,0.906-4.559,1.359-6.836
		c0.053-0.266,0.125-0.528,0.22-0.932c0.49,0.428,0.911,0.801,1.338,1.165C35.869,70.527,36.311,70.892,36.811,71.311z"/>
	<path fill-rule="evenodd" clip-rule="evenodd" fill="#FFFFFF" d="M28.01,27.323c0.504-0.331,0.822-0.237,1.147-0.083
		c2.53,1.199,5.058,2.399,7.592,3.588c0.649,0.305,1.316,0.571,2.128,0.922c-1.068,0.752-2.025,1.425-3.016,2.124
		C33.253,31.689,30.629,29.575,28.01,27.323z"/>
	<path fill-rule="evenodd" clip-rule="evenodd" fill="#FFFFFF" d="M73.82,27.039c-0.05,0.435-0.362,0.621-0.624,0.84
		c-1.856,1.557-3.71,3.114-5.574,4.663c-0.478,0.397-0.981,0.763-1.516,1.176c-0.94-0.647-1.875-1.291-2.915-2.006
		c0.268-0.162,0.437-0.287,0.624-0.374c1.541-0.713,3.088-1.414,4.628-2.13c1.472-0.684,2.938-1.379,4.404-2.076
		C73.143,26.991,73.427,26.824,73.82,27.039z"/>
	<path fill-rule="evenodd" clip-rule="evenodd" fill="#FFFFFF" d="M19.503,64.868c3.455-0.85,6.717-1.653,10.01-2.462
		c0.577,1.037,1.13,2.031,1.728,3.107c-0.256,0.021-0.418,0.049-0.58,0.046c-3.349-0.064-6.697-0.129-10.045-0.199
		c-0.223-0.006-0.454-0.019-0.666-0.08C19.833,65.248,19.75,65.104,19.503,64.868z"/>
	<path fill-rule="evenodd" clip-rule="evenodd" fill="#FFFFFF" d="M73.658,44.546c-0.445-1.022-0.831-1.889-1.201-2.763
		c-0.23-0.54-0.22-0.584,0.229-0.956c0.578-0.479,1.167-0.947,1.754-1.414c1.86-1.479,3.723-2.956,5.569-4.421
		c0.311,0.175,0.286,0.404,0.202,0.617c-0.073,0.183-0.188,0.354-0.306,0.513c-1.379,1.845-2.762,3.686-4.144,5.528
		c-0.629,0.838-1.262,1.675-1.889,2.515C73.798,44.264,73.749,44.381,73.658,44.546z"/>
	<path fill-rule="evenodd" clip-rule="evenodd" fill="#FFFFFF" d="M84.689,54.927c-0.666-0.08-1.314-0.1-1.935-0.241
		c-2.605-0.598-5.202-1.229-7.82-1.855c-0.072-1.121-0.142-2.237-0.218-3.44c0.251,0.076,0.436,0.113,0.605,0.186
		c0.253,0.107,0.498,0.234,0.742,0.362c2.706,1.412,5.412,2.822,8.115,4.238C84.427,54.307,84.78,54.368,84.689,54.927z"/>
	<path fill-rule="evenodd" clip-rule="evenodd" fill="#FFFFFF" d="M21.904,35.176c0.188,0.105,0.368,0.175,0.514,0.29
		c2.279,1.792,4.554,3.589,6.829,5.386c0.665,0.525,0.655,0.521,0.308,1.286c-0.361,0.794-0.7,1.599-1.089,2.493
		c-0.261-0.308-0.511-0.574-0.727-0.863c-1.463-1.964-2.917-3.936-4.38-5.899c-0.388-0.521-0.803-1.021-1.199-1.536
		C21.917,36.016,21.678,35.69,21.904,35.176z"/>
	<path fill-rule="evenodd" clip-rule="evenodd" fill="#FFFFFF" d="M42.807,29.844c0.039-0.231,0.055-0.399,0.096-0.561
		c0.847-3.374,1.698-6.747,2.543-10.121c0.068-0.271,0.123-0.533,0.523-0.604c0.034,0.135,0.084,0.244,0.086,0.354
		c0.049,2.978,0.104,5.956,0.133,8.934c0.012,1.196,0.161,1.03-1.085,1.36C44.361,29.402,43.623,29.616,42.807,29.844z"/>
	<path fill-rule="evenodd" clip-rule="evenodd" fill="#FFFFFF" d="M82.5,64.749c-0.149,0.505-0.486,0.478-0.814,0.484
		c-1.174,0.021-2.347,0.047-3.521,0.073c-2.097,0.044-4.193,0.093-6.29,0.137c-0.271,0.005-0.541,0-0.862,0
		c0.034-0.167,0.031-0.271,0.073-0.349c0.418-0.767,0.86-1.52,1.259-2.296c0.178-0.345,0.395-0.475,0.771-0.382
		c0.848,0.207,1.701,0.396,2.549,0.604c2.131,0.521,4.262,1.047,6.392,1.575C82.199,64.63,82.335,64.691,82.5,64.749z"/>
	<path fill-rule="evenodd" clip-rule="evenodd" fill="#FFFFFF" d="M55.972,18.528c0.494,0.167,0.543,0.52,0.622,0.813
		c0.3,1.109,0.571,2.227,0.85,3.341c0.515,2.061,1.028,4.122,1.541,6.183c0.066,0.265,0.127,0.53,0.219,0.915
		c-1.186-0.247-2.26-0.603-3.416-0.911C55.849,25.435,55.91,22.026,55.972,18.528z"/>
	<path fill-rule="evenodd" clip-rule="evenodd" fill="#FFFFFF" d="M17.478,55.054c-0.11-0.412,0.103-0.578,0.356-0.709
		c1.242-0.636,2.493-1.254,3.729-1.9c1.504-0.786,2.993-1.602,4.494-2.394c0.39-0.206,0.801-0.369,1.346-0.617
		c-0.075,1.165-0.137,2.196-0.208,3.225c-0.025,0.362-0.315,0.398-0.59,0.458c-1.245,0.266-2.489,0.531-3.732,0.805
		c-1.536,0.338-3.07,0.683-4.606,1.019C18.006,54.997,17.737,55.018,17.478,55.054z"/>
	<path fill-rule="evenodd" clip-rule="evenodd" fill="#FFFFFF" d="M230.241,69.781c-0.93,0-1.821,0-2.779,0
		c-0.019-0.266-0.033-0.467-0.049-0.71c1.259,0,2.451,0,3.714,0c0.079,0.878,0.139,1.739-0.244,2.563
		c-0.115,0.245-0.268,0.485-0.452,0.682c-1.396,1.495-4.199,1.122-5.043-0.73c-0.795-1.742-0.794-3.569,0.017-5.312
		c0.779-1.674,3.116-2.142,4.569-0.99c0.649,0.514,0.929,1.209,0.964,2.081c-0.287,0-0.547,0-0.826,0
		c-0.089-0.271-0.155-0.539-0.264-0.787c-0.304-0.701-0.835-1.114-1.611-1.158c-0.808-0.045-1.481,0.214-1.897,0.952
		c-0.121,0.217-0.227,0.451-0.287,0.689c-0.31,1.235-0.334,2.48-0.012,3.712c0.386,1.469,1.688,2.118,3.093,1.538
		c0.3-0.125,0.594-0.395,0.765-0.673C230.229,71.101,230.323,70.484,230.241,69.781z"/>
	<path fill-rule="evenodd" clip-rule="evenodd" fill="#FFFFFF" d="M333.454,64.853c1.078,0,2.106-0.067,3.121,0.02
		c1.1,0.094,1.922,0.723,2.359,1.742c0.661,1.544,0.661,3.121-0.002,4.667c-0.439,1.02-1.266,1.643-2.362,1.74
		c-1.014,0.09-2.042,0.019-3.116,0.019C333.454,70.318,333.454,67.63,333.454,64.853z M334.338,72.32
		c0.742,0,1.418,0.046,2.082-0.013c0.72-0.064,1.288-0.469,1.573-1.131c0.636-1.467,0.634-2.966,0.017-4.439
		c-0.256-0.608-0.76-1.044-1.414-1.116c-0.73-0.082-1.478-0.019-2.258-0.019C334.338,67.842,334.338,70.031,334.338,72.32z"/>
	<path fill-rule="evenodd" clip-rule="evenodd" fill="#FFFFFF" d="M172.687,68.99c-0.155,0.755-0.233,1.535-0.482,2.256
		c-0.452,1.308-1.517,1.98-2.89,1.965c-1.337-0.016-2.346-0.693-2.813-1.976c-0.55-1.509-0.548-3.048-0.011-4.559
		c0.468-1.315,1.49-1.99,2.872-1.989c1.379,0.002,2.377,0.688,2.87,1.997c0.114,0.303,0.205,0.621,0.253,0.939
		c0.067,0.444,0.085,0.896,0.123,1.343C172.636,68.975,172.662,68.983,172.687,68.99z M166.999,68.94
		c0.028,0.008,0.057,0.015,0.085,0.021c0.03,0.422,0.042,0.849,0.096,1.269c0.035,0.269,0.115,0.537,0.208,0.793
		c0.346,0.964,1.009,1.453,1.951,1.459c0.95,0.009,1.662-0.464,1.978-1.421c0.466-1.413,0.458-2.851-0.01-4.266
		c-0.233-0.706-0.725-1.187-1.479-1.346c-1.05-0.221-2.001,0.229-2.356,1.241C167.221,67.408,167.15,68.189,166.999,68.94z"/>
	<path fill-rule="evenodd" clip-rule="evenodd" fill="#FFFFFF" d="M316.911,68.994c-0.173,0.775-0.27,1.578-0.538,2.319
		c-0.46,1.271-1.508,1.919-2.857,1.896c-1.339-0.025-2.314-0.648-2.784-1.903c-0.591-1.578-0.591-3.197,0.021-4.77
		c0.485-1.247,1.471-1.85,2.815-1.849c1.327,0.002,2.298,0.64,2.812,1.861C316.705,67.323,316.799,68.141,316.911,68.994z
		 M315.922,68.973c-0.087-0.825-0.148-1.622-0.491-2.363c-0.371-0.807-1.009-1.207-1.901-1.195
		c-0.861,0.011-1.496,0.396-1.823,1.189c-0.179,0.432-0.294,0.901-0.359,1.365c-0.149,1.049-0.102,2.098,0.256,3.104
		c0.337,0.946,1.038,1.428,1.987,1.409c0.925-0.017,1.6-0.463,1.881-1.33C315.697,70.449,315.776,69.699,315.922,68.973z"/>
	<path fill-rule="evenodd" clip-rule="evenodd" fill="#FFFFFF" d="M324.59,73.007c-0.726,0.196-1.115-0.046-1.448-0.592
		c-0.57-0.941-1.218-1.836-1.827-2.753c-0.122-0.181-0.222-0.374-0.371-0.628c0.429-0.024,0.774-0.027,1.114-0.068
		c1.012-0.122,1.472-0.682,1.448-1.739c-0.023-1.047-0.518-1.599-1.537-1.657c-0.571-0.035-1.147-0.007-1.809-0.007
		c-0.09,2.496,0.002,4.962-0.054,7.463c-0.3,0-0.537,0-0.826,0c0-2.701,0-5.396,0-8.161c0.241-0.013,0.481-0.037,0.721-0.037
		c0.752,0,1.506-0.029,2.254,0.024c0.902,0.065,1.661,0.448,2.017,1.334c0.386,0.965,0.317,1.918-0.307,2.781
		c-0.282,0.391-0.563,0.515-1.572,0.813C323.043,70.905,323.917,71.86,324.59,73.007z"/>
	<path fill-rule="evenodd" clip-rule="evenodd" fill="#FFFFFF" d="M243.536,64.856c0.201-0.013,0.324-0.026,0.449-0.025
		c0.099,0,0.197,0.021,0.368,0.041c0,1.142,0,2.283,0,3.456c0.646,0.194,1.244,0.085,1.831,0.104
		c0.598,0.019,1.197,0.004,1.897,0.004c0.101-1.195-0.006-2.361,0.07-3.569c0.279-0.015,0.517-0.025,0.813-0.04
		c0,2.737,0,5.426,0,8.179c-0.246,0-0.499,0-0.835,0c0-1.252,0-2.491,0-3.785c-1.266,0-2.45,0-3.715,0c0,1.248,0,2.487,0,3.787
		c-0.331,0-0.583,0-0.88,0C243.536,70.301,243.536,67.61,243.536,64.856z"/>
	<path fill-rule="evenodd" clip-rule="evenodd" fill="#FFFFFF" d="M261.768,70.622c0.287,0,0.527,0,0.803,0
		c0.052,0.265,0.096,0.507,0.149,0.746c0.12,0.538,0.441,0.913,0.986,1.005c0.412,0.069,0.849,0.109,1.259,0.05
		c0.718-0.104,1.061-0.489,1.179-1.173c0.113-0.661-0.088-1.203-0.685-1.527c-0.413-0.225-0.869-0.375-1.305-0.56
		s-0.891-0.337-1.301-0.566c-0.731-0.409-1.014-1.077-0.947-1.896c0.071-0.879,0.506-1.506,1.341-1.819
		c0.573-0.217,1.174-0.257,1.772-0.145c1.174,0.222,1.793,1.026,1.79,2.361c-0.231,0.014-0.467,0.029-0.755,0.046
		c-0.069-0.274-0.115-0.514-0.19-0.743c-0.241-0.736-0.993-1.116-1.892-0.967c-0.726,0.122-1.156,0.616-1.168,1.34
		c-0.007,0.456,0.147,0.849,0.545,1.087c0.296,0.179,0.622,0.313,0.947,0.439c0.466,0.18,0.953,0.305,1.41,0.504
		c0.998,0.437,1.464,1.275,1.349,2.352c-0.104,0.988-0.715,1.688-1.729,1.921c-0.385,0.089-0.793,0.138-1.188,0.123
		C262.588,73.141,261.809,72.308,261.768,70.622z"/>
	<path fill-rule="evenodd" clip-rule="evenodd" fill="#FFFFFF" d="M203.45,70.268c0.263,0,0.483,0,0.701,0
		c0.28,1.143-0.489,2.405-1.688,2.786c-1.596,0.507-2.99-0.123-3.586-1.691c-0.598-1.575-0.603-3.187-0.023-4.77
		c0.533-1.461,1.764-2.148,3.186-1.855c1.358,0.281,2.234,1.471,2.189,3.047c-0.23,0.016-0.469,0.03-0.749,0.049
		c-0.051-0.221-0.07-0.418-0.142-0.595c-0.157-0.391-0.278-0.817-0.523-1.146c-0.743-0.997-2.194-0.901-2.848,0.153
		c-0.065,0.107-0.133,0.216-0.171,0.333c-0.512,1.57-0.542,3.145,0.041,4.699c0.229,0.613,0.667,1.059,1.349,1.184
		c0.87,0.161,1.658-0.276,1.976-1.117C203.283,71.02,203.344,70.673,203.45,70.268z"/>
	<path fill-rule="evenodd" clip-rule="evenodd" fill="#FFFFFF" d="M163.36,70.269c0.258,0,0.479,0,0.694,0
		c0.241,1.215-0.51,2.42-1.718,2.792c-1.606,0.493-2.991-0.146-3.573-1.731c-0.572-1.552-0.578-3.146-0.021-4.708
		c0.525-1.472,1.749-2.17,3.173-1.889c1.366,0.269,2.233,1.434,2.213,3.033c-0.252,0-0.506,0-0.766,0
		c-0.103-0.379-0.169-0.749-0.304-1.094c-0.33-0.844-0.964-1.278-1.768-1.257c-0.782,0.021-1.369,0.445-1.645,1.306
		c-0.461,1.444-0.465,2.91,0.005,4.357c0.182,0.559,0.507,1.034,1.084,1.275c0.871,0.364,1.889-0.018,2.267-0.887
		C163.159,71.105,163.232,70.71,163.36,70.269z"/>
	<path fill-rule="evenodd" clip-rule="evenodd" fill="#FFFFFF" d="M192.778,69.072c0,1.146,0,2.162,0,3.248c1.109,0,2.176,0,3.224,0
		c0.065,0.127,0.123,0.188,0.126,0.251c0.004,0.143-0.018,0.286-0.03,0.462c-1.408,0-2.776,0-4.14,0
		c-0.149-0.546-0.2-6.899-0.068-8.082c0.521-0.153,3.127-0.193,4.151-0.064c0.026,0.04,0.073,0.078,0.075,0.117
		c0.01,0.147,0.004,0.295,0.004,0.535c-1.109,0-2.199,0-3.336,0c0,0.958,0,1.824,0,2.797c1.085,0,2.171,0,3.303,0
		c0,0.29,0,0.471,0,0.736C194.994,69.072,193.929,69.072,192.778,69.072z"/>
	<path fill-rule="evenodd" clip-rule="evenodd" fill="#FFFFFF" d="M287.177,68.4c0,0.25,0,0.414,0,0.66c-1.096,0-2.161,0-3.196,0
		c-0.206,0.591-0.24,2.302-0.074,3.27c1.065,0,2.151,0,3.271,0c0,0.284,0,0.47,0,0.699c-1.401,0-2.771,0-4.139,0
		c-0.163-0.529-0.227-6.506-0.087-8.066c0.506-0.168,2.921-0.218,4.149-0.085c0.029,0.037,0.082,0.072,0.084,0.11
		c0.011,0.147,0.005,0.295,0.005,0.537c-1.099,0-2.187,0-3.327,0c0,0.957,0,1.821,0,2.789
		C284.927,68.443,286.023,68.303,287.177,68.4z"/>
	<path fill-rule="evenodd" clip-rule="evenodd" fill="#FFFFFF" d="M276.757,72.348c1.146,0,2.213,0,3.33,0
		c0.012,0.249,0.021,0.435,0.031,0.675c-1.427,0-2.813,0-4.246,0c0-2.718,0-5.404,0-8.146c1.406,0,2.791,0,4.217,0
		c0,0.211,0,0.396,0,0.675c-1.11,0-2.197,0-3.327,0c0,0.955,0,1.82,0,2.787c1.088,0,2.175,0,3.312,0
		c0.014,0.279,0.023,0.46,0.038,0.746c-1.145,0-2.23,0-3.354,0C276.757,70.201,276.757,71.214,276.757,72.348z"/>
	<path fill-rule="evenodd" clip-rule="evenodd" fill="#FFFFFF" d="M252.827,65.553c0,0.985,0,1.83,0,2.761
		c1.097,0.127,2.192-0.011,3.32,0.084c0,0.226,0,0.409,0,0.694c-1.115,0-2.202,0-3.308,0c0,1.12,0,2.135,0,3.22
		c1.102,0,2.167,0,3.307,0c0.015,0.269,0.025,0.471,0.041,0.72c-1.438,0-2.801,0-4.221,0c0-2.706,0-5.393,0-8.084
		c0.498-0.149,3.129-0.189,4.187-0.051c0.011,0.174,0.022,0.358,0.041,0.656c-0.592,0-1.133,0-1.671,0
		C253.979,65.553,253.437,65.553,252.827,65.553z"/>
	<path fill-rule="evenodd" clip-rule="evenodd" fill="#FFFFFF" d="M327.023,64.864c0.3,0,0.541,0,0.854,0c0,2.479,0,4.921,0,7.456
		c1.1,0,2.137,0,3.213,0c0.014,0.279,0.024,0.466,0.038,0.704c-1.381,0-2.716,0-4.104,0
		C327.023,70.313,327.023,67.625,327.023,64.864z"/>
	<path fill-rule="evenodd" clip-rule="evenodd" fill="#FFFFFF" d="M270.73,65.613c-0.735,0-1.353,0-2.021,0c0-0.28,0-0.488,0-0.741
		c1.635,0,3.249,0,4.914,0c0,0.223,0,0.43,0,0.73c-0.653,0-1.29,0-1.995,0c0,2.512,0,4.929,0,7.405c-0.32,0-0.573,0-0.897,0
		C270.73,70.572,270.73,68.153,270.73,65.613z"/>
	<path fill-rule="evenodd" clip-rule="evenodd" fill="#FFFFFF" d="M238.368,65.604c-0.72,0-1.337,0-2.002,0c0-0.276,0-0.482,0-0.734
		c1.639,0,3.253,0,4.877,0c0.035,0.081,0.084,0.146,0.087,0.215c0.006,0.143-0.013,0.287-0.027,0.523c-0.674,0-1.313,0-2.016,0
		c0,2.514,0,4.932,0,7.409c-0.302,0.022-0.538,0.041-0.873,0.066C238.343,70.6,238.417,68.158,238.368,65.604z"/>
	<path fill-rule="evenodd" clip-rule="evenodd" fill="#FFFFFF" d="M208.92,73.043c-0.346,0-0.566,0-0.881,0c0-2.463,0-4.902,0-7.436
		c-0.729,0-1.367,0-2.039,0c0-0.284,0-0.476,0-0.775c1.635-0.011,3.27-0.017,4.899,0.008c0.042,0.133,0.077,0.201,0.08,0.271
		c0.006,0.122-0.007,0.245-0.018,0.464c-0.649,0-1.285,0-1.986,0c-0.104,0.904-0.041,1.723-0.053,2.537
		c-0.012,0.801-0.003,1.604-0.003,2.404C208.92,71.337,208.92,72.159,208.92,73.043z"/>
	<path fill-rule="evenodd" clip-rule="evenodd" fill="#FFFFFF" d="M290.069,64.856c0.307,0,0.527,0,0.852,0c0,2.486,0,4.947,0,7.478
		c1.119,0,2.135,0,3.197,0c0.02,0.256,0.034,0.441,0.052,0.684c-1.381,0-2.716,0-4.101,0
		C290.069,70.296,290.069,67.608,290.069,64.856z"/>
	<path fill-rule="evenodd" clip-rule="evenodd" fill="#FFFFFF" d="M213.938,73.029c-0.229,0-0.466,0-0.752,0
		c0-2.713,0-5.404,0-8.145c0.119-0.02,0.234-0.049,0.351-0.054c0.123-0.006,0.247,0.015,0.365,0.021
		C214.063,65.399,214.094,72.159,213.938,73.029z"/>
	<path fill-rule="evenodd" clip-rule="evenodd" fill="#FFFFFF" d="M236.127,68.618c-0.013,0.253-0.022,0.441-0.034,0.67
		c-1.053,0-2.064,0-3.151,0c-0.021-0.195-0.041-0.398-0.068-0.67C233.968,68.618,234.995,68.618,236.127,68.618z"/>
	<path fill-rule="evenodd" clip-rule="evenodd" fill="#FFFFFF" d="M261.224,68.614c0,0.247,0,0.417,0,0.564
		c-0.198,0.189-1.853,0.232-3.183,0.095c-0.014-0.19-0.029-0.394-0.048-0.659C259.09,68.614,260.116,68.614,261.224,68.614z"/>
	<path fill-rule="evenodd" clip-rule="evenodd" fill="#FFFFFF" d="M294.828,69.273c0-0.216,0-0.402,0-0.697
		c1.055-0.026,2.104-0.033,3.199,0.008c0.016,0.255,0.027,0.441,0.042,0.689C296.971,69.273,295.92,69.273,294.828,69.273z"/>
</g>
</svg>
